<svg width="100" height="100" viewBox="0 0 100 100" fill="none" xmlns="http://www.w3.org/2000/svg">
<g filter="url(#filter0_d_165_3)">
<circle cx="50" cy="45" r="30" fill="#EDEEFF"/>
</g>
<g clip-path="url(#clip0_165_3)">
<path d="M56.8135 48.6978C56.5539 48.7936 56.3651 49.0329 56.3651 49.3201V54.5378C56.3651 54.8968 56.6483 55.184 57.0023 55.184C57.3563 55.184 57.6396 54.8968 57.6396 54.5378V51.4263L59.9525 54.825C60.1413 55.1122 60.4481 55.2318 60.7549 55.1361C61.0617 55.0404 61.2505 54.7532 61.2505 54.3942L61.2033 49.344C61.2033 48.985 60.9201 48.6978 60.5661 48.6978C60.2121 48.6978 59.9289 49.009 59.9289 49.368L59.9525 52.5512L57.5451 48.9611C57.3799 48.7218 57.0967 48.626 56.8135 48.6978Z" fill="#1A2424"/>
<path d="M54.4298 55.184C54.7838 55.184 55.067 54.8968 55.067 54.5378C55.067 54.1788 54.7838 53.8916 54.4298 53.8916H52.9193V52.5991H54.2646C54.6186 52.5991 54.9018 52.3119 54.9018 51.9529C54.9018 51.5939 54.6186 51.3067 54.2646 51.3067H52.9193V50.0142H54.4298C54.7838 50.0142 55.067 49.727 55.067 49.368C55.067 49.009 54.7838 48.7218 54.4298 48.7218H52.2821C51.9281 48.7218 51.6449 49.009 51.6449 49.368V54.5617C51.6449 54.9207 51.9281 55.2079 52.2821 55.2079H54.4298V55.184Z" fill="#1A2424"/>
<path d="M50.3468 50.804C50.3468 49.6313 49.3792 48.6739 48.2227 48.6739H46.7831C46.429 48.6739 46.1458 48.9611 46.1458 49.3201V54.5617C46.1458 54.9207 46.429 55.2079 46.7831 55.2079C47.1371 55.2079 47.4203 54.9207 47.4203 54.5617V52.9342C47.7035 52.9342 48.0339 52.9342 48.2227 52.9342C49.3792 52.9342 50.3468 51.9768 50.3468 50.804ZM48.1991 51.6178C48.0103 51.6178 47.7035 51.6178 47.4203 51.6178C47.4203 51.3067 47.4203 50.9716 47.4203 50.7801C47.4203 50.6126 47.4203 50.2775 47.4203 49.9664H48.1991C48.6475 49.9664 49.0488 50.3493 49.0488 50.7801C49.0488 51.2349 48.6711 51.6178 48.1991 51.6178Z" fill="#1A2424"/>
<path d="M38.3811 51.929C38.3811 53.724 39.8207 55.2079 41.6144 55.2079C43.3845 55.2079 44.8478 53.748 44.8478 51.929C44.8478 50.11 43.3845 48.6739 41.6144 48.6739C39.8207 48.6739 38.3811 50.1339 38.3811 51.929ZM43.5497 51.929C43.5497 53.006 42.6764 53.8916 41.6144 53.8916C40.5524 53.8916 39.6791 53.006 39.6791 51.929C39.6791 50.8519 40.5524 49.9664 41.6144 49.9664C42.6764 49.9664 43.5497 50.8519 43.5497 51.929Z" fill="#1A2424"/>
<path d="M63.587 42.834H60.6841L52.0697 34.098C52.5653 33.5475 52.8485 32.8055 52.8485 32.0636C52.8485 30.3882 51.5033 29 49.8276 29C48.1519 29 46.8066 30.3642 46.8066 32.0636C46.8066 32.8295 47.0899 33.5475 47.5855 34.098L38.9711 42.834H36.0681C34.3689 42.834 33 44.3179 33 46.1608V57.6971C33 59.5161 34.3689 61 36.0681 61H46.9247C47.4439 61 47.8687 60.5692 47.8687 60.0426C47.8687 59.5161 47.4439 59.0853 46.9247 59.0853H36.0681C35.4309 59.0853 34.9117 58.463 34.9117 57.6971V46.1608C34.9117 45.3949 35.4309 44.7726 36.0681 44.7726H63.587C64.2243 44.7726 64.7435 45.3949 64.7435 46.1608V57.6971C64.7435 58.463 64.2243 59.0853 63.587 59.0853H52.7305C52.2113 59.0853 51.7865 59.5161 51.7865 60.0426C51.7865 60.5692 52.2113 61 52.7305 61H63.587C65.2863 61 66.6552 59.5161 66.6552 57.6971V46.1608C66.6552 44.3179 65.2863 42.834 63.587 42.834ZM49.8276 33.1885C49.214 33.1885 48.7183 32.6859 48.7183 32.0636C48.7183 31.4413 49.214 30.9387 49.8276 30.9387C50.4412 30.9387 50.9368 31.4413 50.9368 32.0636C50.9368 32.6859 50.4412 33.1885 49.8276 33.1885ZM49.332 35.0793C49.6624 35.1272 50.0164 35.1272 50.3468 35.0793L57.9936 42.834H41.6616L49.332 35.0793Z" fill="#1A2424"/>
<path d="M37.2482 46.2326C37.1302 46.1129 36.965 46.0411 36.7998 46.0411C36.6346 46.0411 36.4694 46.1129 36.3514 46.2326C36.2334 46.3523 36.1626 46.5198 36.1626 46.6874C36.1626 46.8549 36.2334 47.0224 36.3514 47.1421C36.4694 47.2618 36.6346 47.3336 36.7998 47.3336C36.965 47.3336 37.1302 47.2618 37.2482 47.1421C37.3662 47.0224 37.437 46.8549 37.437 46.6874C37.437 46.5198 37.3662 46.3523 37.2482 46.2326Z" fill="#1A2424"/>
<path d="M62.8554 47.3336C63.0206 47.3336 63.1858 47.2618 63.3038 47.1421C63.4218 47.0224 63.4926 46.8549 63.4926 46.6874C63.4926 46.5198 63.4218 46.3523 63.3038 46.2326C63.1858 46.1129 63.0206 46.0411 62.8554 46.0411C62.6902 46.0411 62.525 46.1129 62.407 46.2326C62.289 46.3523 62.2182 46.5198 62.2182 46.6874C62.2182 46.8549 62.289 47.0224 62.407 47.1421C62.525 47.2618 62.6902 47.3336 62.8554 47.3336Z" fill="#1A2424"/>
<path d="M36.7998 56.5004C36.6346 56.5004 36.4694 56.5722 36.3514 56.6919C36.2334 56.8115 36.1626 56.9791 36.1626 57.1466C36.1626 57.3141 36.2334 57.4817 36.3514 57.6014C36.4694 57.721 36.6346 57.7928 36.7998 57.7928C36.965 57.7928 37.1302 57.721 37.2482 57.6014C37.3662 57.4817 37.437 57.3141 37.437 57.1466C37.437 56.9791 37.3662 56.8115 37.2482 56.6919C37.1302 56.5722 36.965 56.5004 36.7998 56.5004Z" fill="#1A2424"/>
<path d="M62.407 57.6253C62.525 57.745 62.6902 57.8168 62.8554 57.8168C63.0206 57.8168 63.1858 57.745 63.3038 57.6253C63.4218 57.5056 63.4926 57.3381 63.4926 57.1705C63.4926 57.003 63.4218 56.8355 63.3038 56.7158C63.1858 56.5961 63.0206 56.5243 62.8554 56.5243C62.6902 56.5243 62.525 56.5961 62.407 56.7158C62.289 56.8355 62.2182 57.003 62.2182 57.1705C62.2182 57.3381 62.289 57.5056 62.407 57.6253Z" fill="#1A2424"/>
<path d="M49.8276 59.0613C49.568 59.0613 49.332 59.1571 49.1432 59.3485C48.9543 59.54 48.8599 59.7794 48.8599 60.0426C48.8599 60.3059 48.9543 60.5452 49.1432 60.7367C49.332 60.9282 49.568 61.0239 49.8276 61.0239C50.0872 61.0239 50.3232 60.9282 50.512 60.7367C50.7008 60.5452 50.7952 60.3059 50.7952 60.0426C50.7952 59.7794 50.7008 59.54 50.512 59.3485C50.3232 59.181 50.0872 59.0613 49.8276 59.0613Z" fill="#1A2424"/>
</g>
<defs>
<filter id="filter0_d_165_3" x="0" y="0" width="100" height="100" filterUnits="userSpaceOnUse" color-interpolation-filters="sRGB">
<feFlood flood-opacity="0" result="BackgroundImageFix"/>
<feColorMatrix in="SourceAlpha" type="matrix" values="0 0 0 0 0 0 0 0 0 0 0 0 0 0 0 0 0 0 127 0" result="hardAlpha"/>
<feOffset dy="5"/>
<feGaussianBlur stdDeviation="10"/>
<feColorMatrix type="matrix" values="0 0 0 0 0 0 0 0 0 0 0 0 0 0 0 0 0 0 0.05 0"/>
<feBlend mode="normal" in2="BackgroundImageFix" result="effect1_dropShadow_165_3"/>
<feBlend mode="normal" in="SourceGraphic" in2="effect1_dropShadow_165_3" result="shape"/>
</filter>
<clipPath id="clip0_165_3">
<rect width="33.6552" height="32" fill="white" transform="translate(33 29)"/>
</clipPath>
</defs>
</svg>
