<svg width="62" height="50" viewBox="0 0 62 50" fill="none" xmlns="http://www.w3.org/2000/svg">
<path d="M60.8163 20.8284C60.8163 20.3974 60.7627 19.9126 60.7358 19.4548C60.6821 19.0239 60.6821 18.8353 60.6016 18.4313C60.4674 17.6233 60.3063 16.8423 60.0647 16.0612C59.85 15.3071 59.5547 14.526 59.2326 13.7988C58.5346 12.3714 57.7025 10.9978 56.7093 9.75889L56.4677 9.43569C56.3872 9.30103 56.2798 9.1933 56.1993 9.08557L56.1187 8.97783C55.904 8.7085 55.6892 8.4661 55.4745 8.22371C54.9913 7.68505 54.5081 7.17332 53.9981 6.71546C53.5418 6.28453 53.0317 5.8536 52.5486 5.4496L52.2264 5.20721C52.1191 5.12641 51.9849 5.01867 51.8775 4.93788C51.6359 4.77628 51.3943 4.58775 51.1259 4.42615C50.1327 3.77975 49.0858 3.21416 48.012 2.7563L47.3678 2.48697C47.1262 2.37924 46.8846 2.29844 46.6162 2.21764C46.1061 2.02911 45.5156 1.86751 45.0324 1.75978C44.5492 1.65204 44.0392 1.54431 43.5023 1.43658L42.7775 1.35578C42.5628 1.32885 42.3212 1.30191 42.1065 1.27498C41.1401 1.19418 40.1737 1.16725 39.2074 1.19418C38.751 1.22111 38.3215 1.24805 37.8652 1.30191L37.5162 1.35578H37.3283C37.1136 1.38271 36.9257 1.40965 36.7378 1.46351C35.9325 1.59818 35.154 1.78671 34.3756 2.02911C34.0266 2.13684 33.6776 2.2715 33.3287 2.37924L32.8992 2.56777C32.7918 2.62163 32.6844 2.6755 32.577 2.72937C32.0402 2.97176 31.5301 3.29496 31.047 3.64509H30.9396C30.7248 3.48349 30.5101 3.34883 30.2417 3.18723C29.9732 3.02563 29.6779 2.86403 29.3827 2.72937C29.2753 2.6755 29.1679 2.62163 29.0606 2.56777L28.6579 2.40617C27.96 2.13684 27.2084 1.89444 26.4836 1.73284C26.1078 1.65204 25.7051 1.54431 25.2488 1.46351C25.034 1.43658 24.7924 1.38271 24.5777 1.35578L24.1482 1.30191C23.2355 1.19418 22.2692 1.16725 21.3565 1.19418C20.8733 1.19418 20.3901 1.22111 19.9069 1.27498C19.6653 1.30191 19.3969 1.32885 19.1285 1.35578L18.5111 1.46351C17.491 1.62511 16.4441 1.89444 15.4778 2.21764C15.1825 2.29844 14.9409 2.40617 14.6456 2.5139L14.0551 2.7563C13.4914 2.9987 12.9545 3.26803 12.4713 3.53736C11.9344 3.80669 11.4244 4.12988 10.9681 4.42615C10.646 4.61468 10.3507 4.83014 10.1091 5.01867L9.59906 5.39574L9.51853 5.47654C7.34421 7.22718 5.46517 9.32796 3.98878 11.6981C2.21711 14.3644 1.25075 17.5156 1.14337 20.7206C1.11653 21.5286 1.11653 22.3366 1.19706 23.1446C1.25075 23.9526 1.38496 24.7337 1.54603 25.5147C1.70709 26.3227 1.92183 27.1038 2.21711 27.8579C2.21711 27.8848 2.24395 27.9118 2.24395 27.9656L2.2708 28.0195C2.29764 28.0464 2.29764 28.1003 2.32449 28.1542C2.37817 28.2619 2.43186 28.3427 2.48555 28.4504C2.56608 28.612 2.67345 28.7736 2.75398 28.9083C2.96873 29.2584 3.21032 29.5816 3.5056 29.8509C3.80087 30.1472 4.123 30.3627 4.47196 30.5512C4.76724 30.6859 5.1162 30.8205 5.43832 30.8744L5.57254 30.9013H6.05572C6.1631 30.9013 6.24363 30.9013 6.351 30.8744H6.43153L6.51206 30.8475C6.61944 30.8205 6.72681 30.7936 6.83418 30.7667L7.02209 30.6859L7.10262 30.6589C7.26368 30.5781 7.42474 30.4973 7.55896 30.3896L7.69317 30.3088C7.72002 30.2819 7.74686 30.2549 7.74686 30.2549L7.80055 30.2011C7.85423 30.1472 7.90792 30.1203 7.96161 30.0664C8.01529 29.9856 8.09582 29.9317 8.14951 29.8779L8.36426 29.5816C8.44479 29.4739 8.52532 29.3392 8.57901 29.2045C8.60585 29.1776 8.63269 29.1238 8.63269 29.0968L8.68638 28.9622C8.71322 28.9083 8.74007 28.8275 8.74007 28.8275C9.03535 28.0734 9.16956 27.2384 9.11588 26.4035C9.11588 25.7033 9.06219 25.003 8.98166 24.3297C8.90113 23.3331 8.8206 22.3636 8.90113 21.394C9.0085 19.9396 9.33062 18.5121 9.86749 17.1655C10.9412 14.3914 12.7666 12.0213 15.1557 10.2706C15.1557 10.2706 15.1825 10.2706 15.2362 10.2706C15.3167 10.2976 15.3972 10.3514 15.3972 10.3784C15.4778 10.513 15.4241 10.6477 15.3167 10.7285L15.2899 10.7554C14.9946 10.9439 14.7262 11.1863 14.4577 11.4018C14.1356 11.6981 13.8672 11.9405 13.6256 12.1829C11.4513 14.3914 10.0286 17.1655 9.51853 20.2358V20.3166C9.49168 20.3974 9.49168 20.5052 9.46484 20.6398C9.46484 20.6937 9.438 20.7745 9.438 20.8014L9.41115 20.9361C9.38431 21.0708 9.38431 21.2054 9.38431 21.367C9.35747 21.7441 9.33062 22.0942 9.33062 22.4713C9.33062 23.2254 9.41115 23.9526 9.46484 24.6529C9.49168 24.8414 9.49168 25.003 9.51853 25.1915C9.65274 26.619 9.67959 28.4235 8.74007 29.824C8.28373 30.5512 7.55896 31.0629 6.72681 31.2784L6.08257 31.4669L6.27047 32.1672C6.27047 32.2211 6.29731 32.2749 6.29731 32.3019C6.37784 32.5712 6.45837 32.8405 6.56575 33.1098L6.67312 33.3792C6.72681 33.5138 6.80734 33.6485 6.86103 33.8101C7.02209 34.1333 7.20999 34.4296 7.3979 34.6989C7.42474 34.7528 7.45158 34.8066 7.50527 34.8336V34.8874L7.66633 35.076C7.7737 35.2106 7.90792 35.3453 8.01529 35.4799C8.14951 35.6415 8.31057 35.7762 8.47163 35.9109C8.49848 35.9378 8.52532 35.9647 8.57901 35.9917C8.60585 36.0186 8.63269 36.0186 8.63269 36.0455C8.68638 36.0994 8.76691 36.1533 8.79375 36.1802C9.14272 36.4226 9.51853 36.6381 9.89434 36.7997L10.0286 36.8535H10.0822L10.1359 36.8805C10.2433 36.9074 10.3507 36.9613 10.4312 36.9882C10.6728 37.069 10.8875 37.1229 11.1291 37.1767C11.2365 37.2037 11.3707 37.2306 11.4781 37.2306L12.6592 37.4191L12.2029 36.3149C11.8807 35.5877 11.6123 34.8336 11.3976 34.0794C11.3707 33.9986 11.3976 33.9178 11.4244 33.8909C11.4513 33.864 11.4781 33.8101 11.5855 33.7832C11.666 33.7562 11.7465 33.7832 11.7734 33.8101C11.8002 33.837 11.8539 33.864 11.8807 33.9448L11.9613 34.1872C12.0955 34.5642 12.2029 34.9682 12.3639 35.3453C12.4176 35.5338 12.4981 35.6954 12.5518 35.857L12.6055 36.0186C12.6324 36.0725 12.6592 36.1263 12.6861 36.2071L12.7397 36.3149C12.9545 36.8266 13.1424 37.2575 13.3571 37.6346C13.8403 38.6581 14.4309 39.6276 15.0751 40.5703L15.102 40.5972C15.1825 40.705 15.263 40.8127 15.3436 40.9204L15.5046 41.109C15.6925 41.3514 15.8804 41.5938 16.0952 41.8092C16.4978 42.2401 16.9273 42.6711 17.4105 43.0481L17.6789 43.2367C17.7863 43.3175 17.8937 43.3983 18.0279 43.4791L18.0547 43.506C18.2963 43.6676 18.5648 43.8023 18.8064 43.9369C18.8869 43.9908 18.9674 44.0177 19.0479 44.0447L19.5043 44.2332C19.7996 44.3409 20.0948 44.4217 20.417 44.4756L20.6317 44.5295H20.8465C20.8733 44.5295 20.9001 44.5295 20.927 44.5295C21.0075 44.5295 21.088 44.5564 21.1686 44.5564C21.3028 44.5564 21.437 44.5564 21.5712 44.5564C21.786 44.5564 22.0276 44.5564 22.2692 44.5295L22.5376 44.5025H22.645C22.806 44.4756 22.9671 44.4487 23.1281 44.4217C23.4771 44.3409 23.7992 44.2601 24.1214 44.1255L24.2556 44.0716H24.3093L24.4435 44.0177C24.5777 43.9369 24.7388 43.8831 24.873 43.8023C25.1414 43.6676 25.4098 43.506 25.6783 43.3175L25.9736 43.102C26.0809 43.0212 26.1883 42.9404 26.2957 42.8596C26.5104 42.6711 26.6983 42.4825 26.8862 42.294L26.9399 42.2401C27.0205 42.1593 27.101 42.0785 27.2084 41.9708H27.2352L27.5305 41.5938L27.5573 41.5668L27.6647 41.4322C27.6647 41.4052 27.6915 41.4052 27.6915 41.3783C27.7721 41.2706 27.8526 41.1628 27.9331 41.0551C28.2284 40.6242 28.4968 40.1663 28.7384 39.7084C28.8726 39.466 28.98 39.2236 29.0606 39.0351C29.1142 38.9274 29.1679 38.8196 29.1948 38.7119L29.2753 38.4695V38.4426C29.4095 38.1194 29.5169 37.8231 29.5974 37.5538C29.6511 37.3653 29.7048 37.2037 29.7585 37.0151L29.839 36.6919L29.6511 36.4226C28.9532 35.453 28.2552 34.4565 27.611 33.46C27.0205 32.5712 26.4567 31.6285 26.3225 30.5781C26.2151 29.7432 26.5373 28.9083 27.2084 28.3427C27.8526 27.804 28.7384 27.6424 29.5169 27.8848C29.8659 28.0195 30.1611 28.208 30.4296 28.4504L30.9127 28.9083L31.3691 28.4504C31.6912 28.1272 32.0939 27.9118 32.5234 27.831C33.3555 27.6424 34.1876 27.8848 34.805 28.4774C35.4224 29.1507 35.6372 30.0933 35.3956 30.9821C35.1809 31.8979 34.6171 32.7597 34.0803 33.5677L33.9461 33.7562C33.3555 34.6181 32.7649 35.4799 32.1744 36.3418L31.9865 36.6111L32.067 36.9343C32.1475 37.2037 32.2549 37.5807 32.3891 37.9578C32.4697 38.1463 32.5234 38.3349 32.6039 38.5234L32.7918 38.9274C33.0065 39.3852 33.2213 39.8162 33.4897 40.2471C33.6508 40.4895 33.785 40.7319 33.9192 40.9204C33.9997 41.0282 34.0803 41.1628 34.1608 41.2706L34.3219 41.4591C34.6977 41.9169 35.1003 42.3479 35.5567 42.7249L35.7446 42.8865L36.1204 43.1559C36.3888 43.3444 36.6572 43.506 36.9525 43.6676C37.0867 43.7484 37.221 43.8023 37.382 43.8831L37.5431 43.9369H37.5699C37.6236 43.9639 37.6773 43.9908 37.7041 43.9908C38.0263 44.0985 38.3484 44.2063 38.6705 44.2871C38.8584 44.3409 39.0463 44.3679 39.2342 44.3948H39.3416C39.3684 44.3948 39.3684 44.3948 39.3953 44.3948C39.4758 44.3948 39.5295 44.4217 39.61 44.4217C39.959 44.4487 40.308 44.4487 40.6301 44.4487C40.6838 44.4487 40.7374 44.4487 40.7911 44.4487H40.9522L40.979 43.8831L41.0596 44.4217C41.0864 44.4217 41.1133 44.4217 41.1133 44.4217L41.4354 44.3679C41.7575 44.314 42.0528 44.2332 42.3481 44.1255L42.697 43.9908C42.8044 43.9369 42.9118 43.8831 43.0191 43.8292C43.2876 43.6945 43.556 43.5329 43.8513 43.3713L44.2271 43.1289L44.415 42.9673C44.6297 42.8057 44.8713 42.5903 45.1129 42.3748C45.5424 41.9708 45.9451 41.513 46.3209 41.0551L46.5088 40.8127C46.5893 40.705 46.6698 40.5972 46.7504 40.4626C46.9383 40.2202 47.0993 39.9778 47.2604 39.7084C47.851 38.7927 48.361 37.8501 48.7905 36.8535C48.871 36.6919 48.9247 36.5303 49.0052 36.3687L49.2468 35.8031C49.381 35.4261 49.5153 35.1029 49.6226 34.8066C49.73 34.5104 49.8374 34.2141 49.9179 33.8909C49.9447 33.8101 49.9984 33.7562 50.0253 33.7562C50.0521 33.7293 50.1327 33.7024 50.2132 33.7293C50.3474 33.7562 50.4279 33.8909 50.3742 34.0256L50.3474 34.1064C50.1595 34.7258 49.9179 35.3722 49.6763 35.9647L49.6226 36.0725C49.5958 36.1533 49.5689 36.2071 49.5421 36.2879L49.1931 37.2037H50.1863L50.4816 37.1767C50.6158 37.1498 50.7501 37.1229 50.8843 37.0959C51.1527 37.0421 51.3943 36.9613 51.6359 36.8805C51.6627 36.8805 51.7701 36.8266 51.8238 36.7997L51.8775 36.7727L51.7164 36.2879L51.9312 36.7458L52.1728 36.6381C52.2264 36.6111 52.2533 36.5842 52.307 36.5573L52.5217 36.4495C52.6022 36.3957 52.6828 36.3418 52.7633 36.2879C52.8438 36.2341 52.9244 36.1802 53.0317 36.1263L53.166 36.0186C53.4612 35.7762 53.7297 35.5338 53.9981 35.2376L54.186 35.0221L54.2397 34.9413C54.3471 34.8066 54.4544 34.645 54.535 34.5104C54.7229 34.2141 54.8839 33.9178 55.045 33.5677L55.1524 33.3522L55.1792 33.3253C55.2329 33.1906 55.2866 33.0829 55.3134 32.9482C55.394 32.7328 55.4745 32.4904 55.555 32.1941L55.7429 31.5208L55.0718 31.3592C54.9645 31.3323 54.8303 31.3053 54.7229 31.2515C53.5418 30.7667 52.6559 29.6085 52.3607 28.1003C52.1459 26.9691 52.2533 25.8649 52.3607 24.6529C52.4143 23.9795 52.4949 23.3062 52.4949 22.6329C52.4949 22.2289 52.4949 21.798 52.4412 21.367C52.4143 21.2054 52.4143 21.0438 52.3875 20.9092V20.8553C52.3875 20.8284 52.3875 20.8014 52.3875 20.7745L52.3338 20.4782C52.1996 19.6972 52.0385 18.9431 51.7969 18.2159C51.5822 17.4887 51.2869 16.7615 50.938 16.0882C50.589 15.3879 50.1863 14.7146 49.73 14.0951C49.5153 13.7719 49.2737 13.4757 49.0321 13.1794C48.7905 12.9101 48.5757 12.6677 48.3341 12.3983C47.7973 11.8597 47.2067 11.3479 46.5893 10.8901L46.5356 10.8631C46.4283 10.7823 46.3746 10.6477 46.4551 10.5399C46.5088 10.4592 46.5625 10.4322 46.5893 10.4322C46.6162 10.4322 46.6698 10.4053 46.7504 10.4322C49.7032 12.5599 51.7701 15.7111 52.5754 19.2663C52.9244 20.7206 53.0317 22.202 52.9244 23.6833C52.8975 24.0065 52.8707 24.3027 52.8438 24.6259C52.7902 25.2185 52.7365 25.8379 52.7096 26.4574C52.7096 26.8075 52.7096 27.0768 52.7365 27.3462C52.7365 27.4 52.7365 27.427 52.7633 27.4808C52.7633 27.5078 52.7633 27.5616 52.7633 27.5886L52.7902 27.8848C52.8707 28.235 52.9512 28.5851 53.0854 28.9352L53.3002 29.3931C53.3807 29.5547 53.4881 29.7163 53.5686 29.824L53.7297 30.0395C53.7834 30.0933 53.837 30.1741 53.8907 30.228C53.9176 30.2549 53.9713 30.3088 53.9981 30.3357C54.025 30.3627 54.0518 30.3896 54.0786 30.3896L54.186 30.4704C54.3739 30.6051 54.5618 30.7128 54.7497 30.7936L54.8303 30.8205H54.8839C54.9108 30.8205 54.9645 30.8475 54.9645 30.8475L55.0182 30.8744C55.0987 30.9013 55.1792 30.9013 55.2329 30.9283L55.394 30.9821H55.5013C55.5819 30.9821 55.6624 30.9821 55.7698 30.9821H56.0114C56.0382 30.9821 56.0919 30.9821 56.1456 30.9552C56.1456 30.9552 56.1724 30.9552 56.1993 30.9552H56.2798C57.0046 30.8205 57.6488 30.4973 58.1857 30.0125C58.5078 29.7163 58.8031 29.3661 59.0447 28.9891C59.2594 28.6659 59.4473 28.3158 59.5815 27.9387L59.7426 27.5078C59.7695 27.4539 59.7695 27.427 59.7963 27.3731C59.85 27.1846 59.9037 26.996 59.9574 26.8075C60.0647 26.4843 60.1453 26.1073 60.2258 25.6763C60.3332 25.2185 60.4137 24.7875 60.4674 24.3297C60.4942 24.2219 60.4942 24.1681 60.5211 23.9526C60.5479 23.7371 60.5748 23.5217 60.5748 23.3062C60.8163 22.4444 60.8432 21.6364 60.8163 20.8284Z" fill="white"/>
<path d="M29.8659 35.9105C27.3694 33.3788 26.4031 29.7159 27.2889 26.2685C28.1211 23.252 30.3491 20.6664 30.5907 17.5422C30.8591 14.2294 28.6311 10.9705 25.5441 9.67775C22.4571 8.38496 18.8332 8.95055 16.0415 10.7551C13.2498 12.5596 11.3171 15.5222 10.297 18.6734C9.27696 21.8245 9.1159 25.245 9.38434 28.5578C9.51855 30.3085 4.31093 30.1199 7.80057 35.5604C8.95484 37.3649 12.4176 37.4188 13.733 39.1964C16.122 42.3745 19.4238 45.0947 23.3429 44.4752C27.2621 43.8558 30.5907 39.8966 29.839 36.0183" fill="#FDC282"/>
<path d="M22.6181 44.8796C26.3225 44.7988 29.3826 41.9709 29.7853 38.281C29.839 37.7962 29.9732 37.1498 30.4564 37.069C30.859 37.0152 31.1543 37.4461 31.3422 37.8232C31.7717 38.7928 32.0401 39.8701 32.6844 40.705C33.2749 41.4591 34.1071 41.9709 34.9124 42.4826L37.8652 44.2871C38.241 44.5295 38.6973 44.9066 38.5631 45.3375C38.4557 45.5799 38.241 45.7415 37.9994 45.8492C35.5298 47.142 32.8991 48.354 30.1074 48.4617C28.9532 48.5156 27.7989 48.354 26.6983 48.0039C25.2219 47.5191 23.9066 46.6841 22.8597 45.526" fill="#CADDFD"/>
<path d="M3.1298 28.9079C3.58614 30.3623 5.62624 30.8471 6.96841 30.1199C8.31059 29.3927 8.98167 27.8037 9.19642 26.2954C9.41117 24.7872 9.22326 23.225 9.30379 21.6899C9.54538 17.6768 11.4781 13.987 14.6456 11.5361C15.961 10.5396 17.6253 9.54306 17.84 7.87321C18.0548 6.20337 16.6589 4.74898 15.0751 4.39885C13.4914 4.04872 11.8271 4.53352 10.3775 5.23378C1.73394 9.4084 -1.91676 19.8584 2.27081 28.5578C2.27081 28.5578 2.27081 28.5847 2.29766 28.5847" fill="#E8CFB4"/>
<path d="M58.5883 28.9079C58.132 30.3623 56.0919 30.8471 54.7497 30.1199C53.4075 29.3927 52.7096 27.8037 52.5217 26.2954C52.3338 24.7872 52.4949 23.225 52.4143 21.6899C52.1727 17.6768 50.24 13.987 47.0725 11.5361C45.7572 10.5127 44.0929 9.54306 43.8781 7.87321C43.6634 6.20337 45.0592 4.74898 46.643 4.39885C48.2268 4.04872 49.891 4.53352 51.3406 5.23378C60.011 9.43533 63.6349 19.8854 59.4473 28.5847C59.4473 28.5847 59.4473 28.6117 59.4205 28.6117" fill="#E8CFB4"/>
<path d="M28.6579 38.3616C28.6579 38.3347 28.6847 38.3078 28.7116 38.2808V38.2539C28.6579 38.2808 28.6579 38.3078 28.6579 38.3616Z" fill="#025652"/>
<path d="M22.5376 14.8489C20.3901 14.7681 18.8869 16.2225 17.0347 18.2963C16.8199 18.5387 16.8736 18.9158 17.1152 19.1043C17.33 19.2929 17.6789 19.2929 17.8937 19.0774C19.3969 17.5422 20.9538 16.7881 22.4839 16.842C24.5777 16.9228 26.2151 18.4579 26.8325 19.1313C26.9936 19.3198 27.262 19.3467 27.4768 19.1851C27.6378 19.0505 27.6915 18.8081 27.5842 18.6195C27.0473 17.6499 25.544 14.9566 22.5376 14.8489Z" fill="#025652"/>
<path d="M61.9974 21.0706C61.9706 17.6771 61.0042 14.3374 59.2594 11.4286C57.7293 8.92382 55.7966 6.68837 53.5418 4.80306C49.9179 1.86736 45.435 0.197509 40.7911 0.00897768C38.9389 -0.0448884 37.0599 0.143643 35.2614 0.574572C33.8387 0.897768 32.4697 1.43643 31.1812 2.16362C31.1275 2.21749 31.047 2.24442 30.9933 2.29829C30.0001 1.67883 28.9263 1.22096 27.7989 0.897768C26.1078 0.38604 24.3361 0.0897768 22.5644 0.0628438C18.1084 -0.125688 13.7061 1.14017 10.0285 3.64494C7.69316 5.26092 5.65306 7.25397 3.98877 9.57021C3.0224 10.8361 2.2171 12.2096 1.57286 13.664C0.901772 15.2261 0.445433 16.896 0.203842 18.5658C-0.0377486 20.2357 -0.064592 21.9325 0.123312 23.6023C0.311216 25.326 0.633337 27.1036 1.35811 28.6927C2.05604 30.2279 3.34452 31.5745 5.03566 31.9516H5.08935C5.70675 34.3217 6.88786 36.5841 9.19639 37.6614C10.2701 38.1462 11.4244 38.4155 12.6055 38.4155L12.8471 38.8734C14.243 41.4859 16.2294 44.0714 19.0479 45.1757C19.8801 45.4989 20.7391 45.6605 21.6249 45.6605C23.9066 48.3538 27.3157 49.5927 30.7517 49.7004C30.7785 49.7004 30.8322 49.7004 30.8591 49.7004H31.047H31.2349C31.2617 49.7004 31.3154 49.7004 31.3422 49.7004C34.805 49.5927 38.2142 48.3538 40.4958 45.6605C41.0327 45.6605 41.5427 45.6066 42.0796 45.472C45.0861 44.7986 47.2872 42.2669 48.7905 39.7352C49.0589 39.3043 49.2737 38.8734 49.5152 38.4155C51.448 38.3886 53.3539 37.7691 54.7497 36.3417C55.7429 35.2913 56.4677 34.0254 56.8435 32.6518C56.924 32.4094 56.9777 32.167 57.0314 31.9246C57.9172 31.7092 58.7225 31.2782 59.3936 30.6318C60.6284 29.4468 61.219 27.75 61.5948 26.134C61.8364 24.4911 62.0243 22.7674 61.9974 21.0706ZM37.731 45.7682L37.7041 45.7952L37.5968 45.876C36.9794 46.3338 36.3083 46.7109 35.6103 47.0071L35.4761 47.061C35.3688 47.1149 35.2614 47.1418 35.154 47.1957C34.9661 47.2495 34.7782 47.3303 34.5903 47.3842C34.1876 47.4919 33.785 47.5997 33.3823 47.6805C33.0065 47.7613 32.6039 47.8151 32.2281 47.8421C31.8254 47.869 31.4228 47.8959 31.0201 47.8959C30.6175 47.8959 30.2148 47.869 29.8122 47.8421C29.4095 47.8151 29.0337 47.7613 28.6579 47.6805C28.2821 47.5997 27.8794 47.5189 27.5036 47.4111C27.3157 47.3573 27.101 47.2765 26.9131 47.2226L26.6178 47.1149L26.4299 47.0341C25.732 46.7378 25.0609 46.3338 24.4435 45.876L24.3361 45.7952L24.3093 45.7682L24.1213 45.6066C24.0408 45.5258 23.9603 45.472 23.8798 45.3912C25.4367 44.9602 26.8325 44.0984 27.9331 42.9403C29.4095 41.2973 30.4832 39.3312 31.047 37.2035C31.1812 37.7152 31.3691 38.227 31.557 38.7118C32.0402 39.9507 32.7113 41.1088 33.5166 42.1861C34.6708 43.7752 36.3083 44.9064 38.2142 45.3912C38.1336 45.472 38.0531 45.5258 37.9726 45.6066C37.892 45.6874 37.7847 45.7144 37.731 45.7682ZM27.5842 30.4972C27.5842 30.3625 27.5842 30.2548 27.5842 30.1201C27.5842 30.0393 27.611 29.9316 27.6378 29.8508C27.6378 29.7969 27.6647 29.77 27.6915 29.7161C27.7184 29.6623 27.7721 29.5815 27.7721 29.5815L27.8526 29.4737L27.9063 29.4199C27.96 29.3391 28.0405 29.2852 28.121 29.2044L28.2284 29.1505C28.2821 29.1236 28.3358 29.0967 28.3895 29.0697L28.47 29.0159L28.6579 28.962L28.819 28.9351H29.0069L29.1142 28.962C29.2216 28.9889 29.3021 29.0159 29.4095 29.0428H29.4363C29.5169 29.0967 29.5974 29.1236 29.6511 29.1775L29.7048 29.2313L29.8122 29.3121C29.839 29.3391 29.9732 29.5007 29.9732 29.5007C30.0269 29.5815 30.0806 29.6623 30.1074 29.7431C30.1343 29.77 30.1343 29.7969 30.1611 29.8239C30.188 29.9047 30.2148 29.9585 30.2148 30.0393C30.2417 30.174 30.3222 30.3087 30.4027 30.3895C30.5101 30.5241 30.6711 30.6318 30.8591 30.6857H30.9396H31.0201C31.2617 30.7126 31.4764 30.6318 31.6644 30.4972C31.8254 30.3895 31.9328 30.2279 31.9596 30.0393C31.9596 29.9855 31.9865 29.9316 32.0133 29.8777C32.0133 29.8777 32.067 29.77 32.067 29.7431C32.067 29.7161 32.0938 29.6892 32.1207 29.6623C32.1475 29.6353 32.1744 29.5545 32.2012 29.5276C32.2012 29.5276 32.2012 29.5276 32.2012 29.5007C32.2549 29.4468 32.3086 29.3929 32.3623 29.3391L32.4697 29.2583L32.5502 29.2044C32.6039 29.1505 32.6844 29.1236 32.7381 29.0967L32.7918 29.0697C32.8992 29.0428 33.0065 29.0159 33.0871 28.9889C32.926 29.0159 33.2213 28.9889 33.275 28.9889H33.3286C33.4092 28.9889 33.4629 29.0159 33.5434 29.0428C33.5971 29.0428 33.6239 29.0697 33.6776 29.0967L33.7313 29.1236C33.785 29.1505 33.8387 29.1775 33.8924 29.2044C33.8924 29.2044 34.0266 29.3121 34.0266 29.2852C34.1608 29.3929 34.2682 29.5276 34.3755 29.6892C34.4561 29.8508 34.5098 30.0124 34.5098 30.2009C34.5366 30.4702 34.4829 30.7396 34.4024 30.982C34.2145 31.5206 33.946 32.0324 33.6239 32.5172C33.2481 33.1097 32.8455 33.7022 32.4428 34.2678C32.0402 34.8334 31.6644 35.3721 31.2885 35.9377C31.208 36.0454 31.1275 36.1801 31.0738 36.2878C31.0201 36.1531 30.9396 36.0454 30.8591 35.9377C30.0537 34.8065 29.2753 33.6753 28.5237 32.5172C28.1747 32.0324 27.9331 31.4937 27.7452 30.9281C27.7184 30.8742 27.7184 30.7934 27.6915 30.7126C27.611 30.6318 27.5842 30.5241 27.5842 30.4972ZM29.3021 29.0159C29.2753 28.9889 29.2216 28.962 29.3021 29.0159V29.0159ZM60.0916 23.1983C60.0647 23.4138 60.0647 23.6023 60.0379 23.8178C60.011 24.0333 60.011 24.0871 59.9842 24.1679C59.9305 24.5988 59.85 25.0298 59.7426 25.4607C59.6621 25.8108 59.5815 26.1879 59.4742 26.538C59.4205 26.7266 59.3668 26.8882 59.3131 27.0767C59.2863 27.1575 59.2594 27.2383 59.2326 27.3191L59.152 27.5076C59.1252 27.5345 59.1252 27.5615 59.1252 27.5884C58.991 27.9116 58.8299 28.2348 58.642 28.5311C58.4541 28.8543 58.2125 29.1505 57.9172 29.3929C57.4877 29.7969 56.924 30.0663 56.3335 30.174C56.3066 30.174 56.1724 30.2009 56.1724 30.2009C56.0919 30.2009 55.9845 30.2009 55.904 30.2009C55.8235 30.2009 55.7429 30.2009 55.6892 30.2009H55.6624L55.6087 30.174C55.5282 30.1471 55.4476 30.1201 55.3403 30.1201C55.3403 30.1201 55.2061 30.0663 55.1792 30.0663C55.0182 29.9855 54.8571 29.9047 54.7229 29.7969L54.696 29.77C54.6423 29.7161 54.5618 29.6623 54.5081 29.5815C54.4544 29.5007 54.4007 29.4468 54.3471 29.3929L54.3202 29.3391L54.2934 29.2852C54.2128 29.1505 54.1055 29.0159 54.0518 28.8812L53.9444 28.6927L53.8907 28.5849C53.8907 28.5849 53.8639 28.558 53.8639 28.5041C53.7565 28.2079 53.6491 27.8847 53.5954 27.5615C53.5954 27.5615 53.5686 27.4268 53.5686 27.3999C53.5686 27.2922 53.5418 27.2114 53.5418 27.1036C53.5149 26.8343 53.5149 26.565 53.5149 26.2687C53.5418 25.353 53.6491 24.4642 53.7297 23.5485C53.837 22.0133 53.7297 20.4512 53.3539 18.9429C52.5217 15.2531 50.3474 11.9403 47.2336 9.70487C46.8041 9.46248 46.2403 9.62407 45.9988 10.055C45.7572 10.4859 45.8914 11.0246 46.3209 11.2939C46.9114 11.7249 47.4751 12.2096 47.9852 12.7214C48.1999 12.9638 48.4415 13.2062 48.6563 13.4755C48.8978 13.7448 49.1126 14.0411 49.3273 14.3374C49.7568 14.9568 50.1595 15.5763 50.4816 16.2496C50.8037 16.896 51.099 17.5693 51.3138 18.2696C51.5553 18.9698 51.7164 19.724 51.8238 20.4512L51.8506 20.6666C51.8506 20.6936 51.8775 20.8552 51.8775 20.8552C51.9043 21.0168 51.9043 21.1784 51.9312 21.313C51.958 21.717 51.9848 22.121 51.9848 22.525C51.958 24.4103 51.5017 26.2687 51.8775 28.1271C52.1727 29.6892 53.1391 31.1705 54.6423 31.79C54.7766 31.8438 54.9108 31.8977 55.0718 31.9246C55.0182 32.167 54.9376 32.4094 54.8571 32.6249C54.8034 32.7596 54.7766 32.8673 54.7229 33.002L54.6155 33.2174C54.4813 33.5137 54.3202 33.783 54.1592 34.0793C54.0786 34.2139 53.9981 34.3486 53.8907 34.4563L53.837 34.5102L53.6491 34.7257C53.4344 34.9681 53.166 35.2105 52.9244 35.4259L52.8438 35.5067C52.7633 35.5606 52.6828 35.6145 52.6022 35.6683C52.4412 35.7761 52.2533 35.8838 52.0654 35.9646L51.8238 36.0723C51.8775 36.0454 51.6627 36.1531 51.5822 36.1531C51.3674 36.2339 51.1259 36.3147 50.8843 36.3686C50.75 36.3955 50.6427 36.4225 50.5084 36.4494L50.3205 36.4763H50.2937C50.3205 36.3686 50.3742 36.2609 50.4279 36.1801C50.6964 35.5337 50.9379 34.9142 51.1259 34.2409L51.1527 34.1601C51.2869 33.6753 50.9916 33.1636 50.5084 33.0289C50.0253 32.8942 49.5152 33.1905 49.381 33.6753C49.3005 33.9715 49.1931 34.2678 49.0857 34.5641C48.9784 34.8873 48.8442 35.2105 48.7099 35.5606L48.6026 35.8299L48.5489 35.9377C48.4415 36.1531 48.361 36.3686 48.2536 36.5841C47.8241 37.5536 47.3141 38.4694 46.7504 39.3582C46.5893 39.6006 46.4282 39.843 46.2672 40.0584C46.1867 40.1661 46.1061 40.2739 46.0256 40.3816L45.9719 40.4355L45.8377 40.5971C45.4887 41.0549 45.0861 41.4589 44.6834 41.8629C44.4687 42.0515 44.2539 42.24 44.0392 42.4285L43.8781 42.5632L43.5292 42.8056C43.2876 42.9672 43.046 43.1018 42.7775 43.2365C42.6702 43.2904 42.5896 43.3442 42.4823 43.3712L42.3749 43.3981L42.1601 43.4789C41.8917 43.5597 41.6233 43.6405 41.328 43.6944L41.1401 43.7213C41.1132 43.7213 40.8717 43.7482 41.0059 43.7482C41.1401 43.7482 40.9253 43.7482 40.8717 43.7482C40.818 43.7482 40.7106 43.7752 40.6301 43.7752C40.3079 43.8021 39.9858 43.7752 39.6637 43.7482C39.5832 43.7482 39.5026 43.7213 39.3953 43.7213H39.3416C39.1805 43.6944 38.9926 43.6674 38.8316 43.6136C38.5363 43.5328 38.241 43.452 37.9457 43.3442C37.8652 43.3173 37.8115 43.2904 37.731 43.2635L37.7041 43.2365H37.6773C37.5431 43.1826 37.4089 43.1019 37.2746 43.048C37.0062 42.9133 36.7646 42.7517 36.523 42.5901L36.362 42.4824L36.2546 42.4016L36.1741 42.3477L35.9862 42.1861C35.5835 41.836 35.1808 41.432 34.8587 41.0011L34.7514 40.8664L34.7245 40.8125C34.644 40.7048 34.5634 40.5971 34.4829 40.4893C34.3219 40.2739 34.1876 40.0584 34.0534 39.8429C33.8118 39.439 33.5971 39.008 33.3823 38.604L33.2481 38.3347L33.1944 38.227C33.1139 38.0384 33.0602 37.8768 32.9797 37.6883C32.8723 37.3651 32.7649 37.0419 32.6576 36.6918C33.275 35.8299 33.8655 34.9681 34.4561 34.1062C35.0735 33.1905 35.7446 32.2209 36.013 31.1166C36.3083 30.0124 36.0398 28.8273 35.2614 27.9924C34.5098 27.2383 33.4092 26.9151 32.3623 27.1575C31.7986 27.2922 31.2885 27.5615 30.8859 27.9655C30.5638 27.6423 30.1611 27.3999 29.7585 27.2383C28.7384 26.8882 27.611 27.1036 26.7788 27.8039C25.9467 28.4772 25.5172 29.5545 25.6514 30.6318C25.7856 31.8169 26.403 32.8134 27.0473 33.783C27.7184 34.8065 28.3895 35.803 29.1142 36.7726C29.0605 36.9342 29.0069 37.1227 28.9532 37.2843C28.8458 37.6075 28.7384 37.9307 28.6042 38.2539V38.2808V38.3078C28.6042 38.3347 28.5774 38.3616 28.5774 38.3616V38.3886C28.5237 38.4963 28.4968 38.604 28.4431 38.6848C28.3358 38.9003 28.2284 39.1158 28.121 39.3043C27.8794 39.7352 27.6378 40.1661 27.3426 40.5701C27.262 40.6779 27.1815 40.7856 27.101 40.8933C27.101 40.9203 27.0741 40.9203 27.0741 40.9203L27.101 40.8933C27.101 40.9203 27.0741 40.9203 27.0741 40.9472C27.0473 40.9741 27.0473 40.9741 27.0473 40.9741L26.9668 41.0819C26.8057 41.2973 26.6178 41.4859 26.4299 41.6744C26.242 41.8629 26.0272 42.0784 25.8125 42.2669C25.732 42.3477 25.6514 42.4016 25.544 42.4824L25.4635 42.5363L25.2488 42.6709C25.0072 42.8325 24.7656 42.9672 24.524 43.1018C24.3898 43.1826 24.2556 43.2365 24.1213 43.2904H24.0945L23.8529 43.3981C23.5576 43.5058 23.2624 43.5866 22.9402 43.6674C22.7792 43.6944 22.645 43.7213 22.4839 43.7482H22.4302L22.1349 43.7752C21.8128 43.8021 21.4638 43.8021 21.1417 43.8021C21.0344 43.8021 20.927 43.7752 20.8196 43.7752H20.927H20.8733H20.927H20.8464L20.6317 43.7482C20.3633 43.6944 20.068 43.6136 19.7996 43.5328L19.6385 43.4789L19.5311 43.452L19.3969 43.3981C19.3164 43.3712 19.2627 43.3442 19.1822 43.2904C18.9406 43.1557 18.699 43.021 18.4574 42.8864C18.35 42.8056 18.2426 42.7517 18.1353 42.6709L17.9742 42.5363L17.9474 42.5093L17.9205 42.4824C17.491 42.1323 17.0615 41.7283 16.6857 41.3243C16.4978 41.1088 16.3099 40.8933 16.122 40.6509L16.0146 40.5163L15.9878 40.4893C15.9073 40.3816 15.8267 40.2469 15.7193 40.1392C15.102 39.2504 14.5382 38.3078 14.0551 37.3112C13.8403 36.8803 13.6524 36.4494 13.4645 36.0185L13.4108 35.9107C13.384 35.803 13.3303 35.7222 13.3034 35.6145C13.2229 35.4259 13.1692 35.2643 13.0887 35.0758C12.9276 34.6449 12.7934 34.2409 12.6592 33.8099C12.6592 33.783 12.6592 33.7561 12.6324 33.7561C12.4981 33.2713 11.9881 32.975 11.5049 33.1097C11.0217 33.2444 10.7265 33.7561 10.8607 34.2409C11.0754 35.0219 11.3707 35.803 11.6928 36.5841C11.5855 36.5571 11.4781 36.5571 11.3707 36.5302C11.156 36.4763 10.9412 36.4225 10.7265 36.3686C10.6459 36.3417 10.5386 36.3147 10.458 36.2878L10.297 36.2339H10.2701C9.92117 36.0723 9.5722 35.8838 9.25008 35.6683C9.19639 35.6414 8.98165 35.4259 9.16955 35.6145C9.11586 35.5606 9.03533 35.5067 8.98165 35.4529C8.84743 35.3182 8.71321 35.2105 8.579 35.0758C8.47162 34.9681 8.36425 34.8334 8.25687 34.6987L8.23003 34.6718C8.23003 34.6718 8.23003 34.6718 8.23003 34.6449C8.17634 34.5641 8.09581 34.4833 8.04213 34.4025C7.85422 34.1331 7.69316 33.8638 7.5321 33.5676C7.47842 33.4329 7.39788 33.2982 7.3442 33.1905C7.3442 33.1636 7.31735 33.1366 7.31735 33.1097L7.26367 32.9481C7.15629 32.7057 7.07576 32.4633 7.02208 32.194C6.99523 32.1401 6.99523 32.0862 6.96839 32.0054C7.9616 31.7361 8.79374 31.1166 9.35746 30.2548C10.3507 28.7735 10.4043 26.9151 10.2433 25.1914C10.1628 24.3026 10.0554 23.4138 10.0554 22.525C10.0554 22.1749 10.0554 21.7978 10.1091 21.4477C10.1091 21.2861 10.1359 21.0975 10.1628 20.936C10.1628 20.936 10.1896 20.8013 10.1896 20.7744C10.1896 20.6666 10.2164 20.5589 10.2433 20.4512C10.6996 17.5424 12.0686 14.8491 14.1624 12.7483C14.4309 12.479 14.6993 12.2366 14.9677 11.9942C15.2093 11.7787 15.4778 11.5633 15.7462 11.3747C16.1757 11.1054 16.3099 10.5667 16.0683 10.1089C15.8536 9.70487 15.2362 9.48941 14.8335 9.75874C12.3371 11.5633 10.4312 14.068 9.30377 16.9499C8.7669 18.3773 8.41794 19.8586 8.31056 21.3669C8.17634 23.0637 8.49847 24.7604 8.52531 26.4572C8.579 27.1844 8.44478 27.9116 8.17634 28.6119C8.17634 28.6119 8.12266 28.7735 8.09581 28.7735C8.06897 28.8273 8.04213 28.8812 8.01528 28.9351C7.93475 29.0967 7.82738 29.2313 7.74685 29.3929C7.72001 29.4199 7.72001 29.4199 7.72001 29.4468L7.69316 29.5007C7.63948 29.5545 7.58579 29.6353 7.5321 29.6892C7.47842 29.7431 7.39788 29.7969 7.3442 29.8777L7.31735 29.9047L7.26367 29.9316C7.12945 30.0124 6.99523 30.0932 6.86102 30.174L6.69995 30.2279C6.61942 30.2548 6.53889 30.2817 6.43152 30.2817H6.37783C6.2973 30.2817 6.21677 30.3087 6.13624 30.3087C6.05571 30.3087 5.94834 30.3087 5.86781 30.3087H5.76043C5.73359 30.3087 5.70675 30.2817 5.6799 30.2817C5.41147 30.2279 5.14304 30.1471 4.8746 30.0124C4.57932 29.8777 4.31089 29.6892 4.0693 29.4468C3.80086 29.2044 3.58612 28.9351 3.42506 28.6388C3.34453 28.5041 3.26399 28.3425 3.18346 28.2079C3.12978 28.1271 3.10293 28.0193 3.04925 27.9385C2.99556 27.8577 2.99556 27.8039 2.96872 27.75C2.91503 27.6423 2.91503 27.6153 2.94187 27.6961C2.67344 26.969 2.45869 26.2148 2.29763 25.4607C2.13657 24.7066 2.0292 23.9525 1.97551 23.1714C1.92182 22.3903 1.89498 21.6093 1.92182 20.8282C2.0292 17.7309 2.94187 14.7144 4.63301 12.1019C5.97518 9.70487 7.80054 7.65796 9.92117 5.96118L9.94801 5.93425L9.97485 5.90731L10.1628 5.77265L10.4849 5.53025C10.7533 5.34172 11.0217 5.15319 11.317 4.96466C11.8002 4.64146 12.2834 4.37213 12.7934 4.1028C13.3034 3.83347 13.8135 3.59107 14.3503 3.34868L14.5114 3.26788L14.8872 3.10628C15.1556 2.99855 15.3972 2.91775 15.6657 2.83695C16.632 2.51375 17.6521 2.24442 18.6721 2.08282L19.0479 2.05589L19.2627 2.02896C19.5043 2.00202 19.7459 1.97509 19.9875 1.94816C20.4438 1.89429 20.927 1.86736 21.3833 1.86736C22.296 1.84042 23.1818 1.89429 24.0945 1.97509L24.4166 2.00202H24.4703H24.4972C24.7119 2.02896 24.9266 2.05589 25.1414 2.10976C25.544 2.19055 25.9199 2.27135 26.3225 2.35215C27.0204 2.51375 27.7184 2.72922 28.4163 2.99855L28.6579 3.10628C28.819 3.16014 28.9532 3.24094 29.0874 3.32174C29.3558 3.45641 29.6243 3.59107 29.8658 3.75267C30.1074 3.91427 30.2953 4.022 30.5101 4.1836C30.6175 4.2644 30.7785 4.31826 30.9127 4.31826H31.0201C31.1543 4.31826 31.3154 4.2644 31.4228 4.1836C31.8791 3.8604 32.3354 3.56414 32.8455 3.34868C32.9797 3.26788 33.1407 3.21401 33.275 3.13321H33.3018L33.5702 3.02548C33.8924 2.89081 34.2145 2.78308 34.5634 2.67535C35.3151 2.43295 36.0667 2.27135 36.8451 2.13669C37.0599 2.10976 37.2746 2.05589 37.4894 2.02896H37.5162H37.5431L37.9189 1.97509C38.3484 1.92122 38.7779 1.89429 39.2074 1.86736C40.1469 1.81349 41.0864 1.84042 42.0259 1.94816C42.2407 1.97509 42.4554 2.00202 42.6702 2.02896L42.8849 2.05589L43.3144 2.13669C43.7976 2.21749 44.2808 2.32522 44.764 2.43295C45.2471 2.54068 45.8109 2.72922 46.3209 2.89081C46.5625 2.97161 46.8041 3.05241 47.0188 3.13321L47.3946 3.29481L47.5557 3.34868L47.6362 3.37561C48.6831 3.83347 49.7031 4.37213 50.6427 4.99159C50.8843 5.15319 51.1259 5.31479 51.3674 5.50332C51.4748 5.58412 51.609 5.66492 51.7164 5.74572L51.9043 5.88038H51.9312L52.0385 5.96118C52.5217 6.33824 53.0049 6.76917 53.4612 7.17317C53.9713 7.63103 54.4276 8.14276 54.8839 8.65448C55.0987 8.89688 55.3134 9.13928 55.5282 9.40861C55.6355 9.54328 55.7698 9.67794 55.8771 9.83954L55.9845 9.9742L56.0382 10.0281L56.1456 10.1627C57.0851 11.3747 57.9172 12.6944 58.5883 14.095C58.9104 14.7952 59.1789 15.5224 59.3936 16.2496C59.6084 17.0037 59.7963 17.7579 59.9037 18.5389C59.9573 18.916 59.9842 19.1045 60.0379 19.5085C60.0916 19.9125 60.1184 20.3973 60.1184 20.8282C60.1721 21.6362 60.1452 22.4173 60.0916 23.1983Z" fill="#025652"/>
<path d="M39.4221 14.8489C36.4156 14.9566 34.9124 17.6499 34.4292 18.6195C34.3218 18.835 34.4024 19.1043 34.6171 19.2121C34.805 19.2929 35.0198 19.2659 35.154 19.1043C35.7714 18.431 37.4088 16.8958 39.5026 16.815C41.0327 16.7612 42.5896 17.5153 44.0929 19.0505C44.3076 19.2929 44.6834 19.2929 44.8982 19.0774C45.1397 18.8619 45.1397 18.4849 44.925 18.2694C43.0728 16.2225 41.5696 14.7681 39.4221 14.8489Z" fill="#025652"/>
<path d="M30.3759 36.2069C29.0874 34.5371 27.9868 32.7057 27.1278 30.7665C26.8594 30.147 26.5909 29.4198 26.9399 28.8273C27.1546 28.4502 27.5573 28.2348 27.9868 28.2078C28.4163 28.1809 28.8458 28.3156 29.1679 28.5849C29.6511 28.935 30.0269 29.4468 30.6175 29.5006C31.1006 29.5545 31.5301 29.2044 31.8791 28.8812C32.2281 28.558 32.577 28.154 33.0334 28.0462C33.7044 27.9116 34.4024 28.2617 34.6977 28.8812C34.9661 29.5006 34.9929 30.2009 34.7513 30.8473C34.5097 31.4667 34.1608 32.0593 33.7581 32.5979L31.1812 36.3147" fill="#025652"/>
</svg>
