<svg width="80" height="80" viewBox="0 0 80 80" fill="none" xmlns="http://www.w3.org/2000/svg">
<g filter="url(#filter0_d_2631_1)">
<rect x="20" y="15" width="40" height="40" rx="10" fill="white"/>
<path d="M35.7969 35.125C35.5859 35.3359 35.5859 35.6875 35.7969 35.8984L40.3438 40.4688C40.5781 40.6797 40.9297 40.6797 41.1406 40.4688L41.6797 39.9297C41.8906 39.7188 41.8906 39.3672 41.6797 39.1328L38.0703 35.5L41.6797 31.8906C41.8906 31.6562 41.8906 31.3047 41.6797 31.0938L41.1406 30.5547C40.9297 30.3438 40.5781 30.3438 40.3438 30.5547L35.7969 35.125Z" fill="#025652"/>
</g>
<defs>
<filter id="filter0_d_2631_1" x="0" y="0" width="80" height="80" filterUnits="userSpaceOnUse" color-interpolation-filters="sRGB">
<feFlood flood-opacity="0" result="BackgroundImageFix"/>
<feColorMatrix in="SourceAlpha" type="matrix" values="0 0 0 0 0 0 0 0 0 0 0 0 0 0 0 0 0 0 127 0" result="hardAlpha"/>
<feOffset dy="5"/>
<feGaussianBlur stdDeviation="10"/>
<feColorMatrix type="matrix" values="0 0 0 0 0 0 0 0 0 0 0 0 0 0 0 0 0 0 0.05 0"/>
<feBlend mode="normal" in2="BackgroundImageFix" result="effect1_dropShadow_2631_1"/>
<feBlend mode="normal" in="SourceGraphic" in2="effect1_dropShadow_2631_1" result="shape"/>
</filter>
</defs>
</svg>
