<svg width="100" height="100" viewBox="0 0 100 100" fill="none" xmlns="http://www.w3.org/2000/svg">
<g filter="url(#filter0_d_165_0)">
<circle cx="50" cy="45" r="30" fill="#FFE4E1"/>
</g>
<g clip-path="url(#clip0_165_0)">
<path d="M52.1787 42.6397C50.522 40.983 48.4567 39.8936 46.3688 39.6213C44.1674 39.3262 42.2156 39.939 40.8312 41.3461L40.7858 41.3915C40.3092 41.8681 39.6964 42.1858 39.0156 42.2766C37.7447 42.4582 36.5872 43.0709 35.6794 44.0014C33.4553 46.2936 33.4326 50.0383 35.6567 52.3305C36.1787 52.8752 36.7915 53.3064 37.4723 53.6241C39.1745 54.3958 40.5362 55.7575 41.2851 57.4823C41.5801 58.1631 42.0113 58.7759 42.556 59.3206C43.6454 60.4099 45.1206 61 46.6865 61C48.2525 61 49.7276 60.3872 50.817 59.2979C51.7475 58.3901 52.3376 57.2099 52.5191 55.9163C52.6099 55.2128 52.9276 54.6 53.4042 54.1234L53.4496 54.078C54.834 52.6709 55.4468 50.6965 55.1518 48.4723C54.8794 46.3844 53.8354 44.2965 52.1787 42.6397ZM51.9745 52.6028L51.9518 52.6255C51.1347 53.4199 50.6354 54.4638 50.4539 55.6213C50.3404 56.461 49.9546 57.2099 49.3645 57.8C47.8893 59.2525 45.5064 59.2525 44.0312 57.8C43.6908 57.4596 43.3957 57.0511 43.2142 56.6199C42.2383 54.4184 40.5135 52.6709 38.3347 51.695C37.9035 51.4908 37.495 51.2184 37.1546 50.8553C35.7248 49.3575 35.7248 46.9518 37.1546 45.4539C37.7447 44.8411 38.4936 44.4553 39.3106 44.3419C40.4454 44.1603 41.4667 43.661 42.261 42.844L42.2837 42.8213C43.0553 42.0497 44.0993 41.6411 45.3248 41.6411C47.1404 41.6411 49.1376 42.5716 50.6808 44.1149C51.9971 45.4539 52.8596 47.1106 53.0638 48.7674C53.2908 50.3333 52.8823 51.695 51.9745 52.6028Z" fill="#1A2424"/>
<path d="M52.8822 38.7589C53.0638 38.7589 53.2454 38.7589 53.4496 38.7362C54.6978 38.6 55.9007 37.9872 56.8539 37.0114C57.8071 36.0355 58.4198 34.8326 58.556 33.5617C58.7149 32.2227 58.329 30.9972 57.4666 30.1348C56.6042 29.2723 55.4014 28.8865 54.0851 29.0227C52.8368 29.1589 51.634 29.7716 50.6808 30.7475C49.7276 31.7234 49.1149 32.9262 48.9787 34.1972C48.8198 35.5362 49.2056 36.7617 50.0681 37.6241C50.7943 38.3731 51.7702 38.7589 52.8822 38.7589ZM51.0439 34.4468C51.1347 33.6752 51.5205 32.8809 52.156 32.2454C52.7915 31.6099 53.5631 31.2241 54.3347 31.1333C54.4482 31.1106 54.539 31.1106 54.6525 31.1106C55.1971 31.1106 55.6737 31.2922 56.0142 31.6326C56.4227 32.0411 56.5815 32.6312 56.5134 33.3348C56.4227 34.1064 56.0368 34.9007 55.4014 35.5362C54.7659 36.1716 53.9943 36.5575 53.2227 36.6482C52.5418 36.739 51.9517 36.5575 51.5432 36.1489C51.1347 35.7177 50.9532 35.1277 51.0439 34.4468Z" fill="#1A2424"/>
<path d="M40.3773 39.2355C40.5589 39.2355 40.7404 39.2355 40.9447 39.2128C42.1929 39.0766 43.3957 38.4638 44.3489 37.4879C45.3021 36.5121 45.9149 35.3092 46.0511 34.0383C46.2099 32.6993 45.8241 31.4738 44.9617 30.6113C44.0993 29.7489 42.8964 29.3631 41.5801 29.4993C40.3319 29.6355 39.1291 30.2482 38.1759 31.2241C37.2227 32.2 36.6099 33.4028 36.4737 34.6738C36.3149 36.0128 36.7007 37.2383 37.5631 38.1007C38.2894 38.8496 39.2652 39.2355 40.3773 39.2355ZM39.0383 36.6028C38.6298 36.1943 38.4709 35.6043 38.539 34.9007C38.6298 34.1291 39.0156 33.3348 39.6511 32.6993C40.2865 32.0638 41.0581 31.678 41.8298 31.5872C41.9433 31.5645 42.034 31.5645 42.1475 31.5645C42.6922 31.5645 43.1688 31.7461 43.5092 32.0865C43.9177 32.495 44.0766 33.0851 44.0085 33.7887C43.9177 34.5603 43.5319 35.3546 42.8964 35.9901C42.261 36.6255 41.4894 37.0114 40.7177 37.1021C40.0369 37.1929 39.4241 37.0114 39.0383 36.6028Z" fill="#1A2424"/>
<path d="M64.8652 37.6241C64.0028 36.7617 62.8 36.3759 61.4837 36.5121C60.2355 36.6482 59.0326 37.261 58.0794 38.2369C57.1262 39.2128 56.5135 40.4156 56.3773 41.6865C56.2184 43.0255 56.6043 44.2511 57.4667 45.1135C58.1929 45.8624 59.1915 46.2482 60.3036 46.2482C60.4851 46.2482 60.6667 46.2482 60.8709 46.2255C62.1192 46.0894 63.322 45.4766 64.2752 44.5007C65.2284 43.5248 65.8411 42.322 65.9773 41.0511C66.1135 39.6894 65.7277 38.4865 64.8652 37.6241ZM63.8894 40.8014C63.7986 41.5731 63.4128 42.3674 62.7773 43.0028C62.1418 43.6383 61.3702 44.0241 60.5986 44.1149C59.9177 44.2057 59.3277 44.0241 58.9192 43.6156C58.5106 43.2071 58.3518 42.617 58.4199 41.9135C58.5106 41.1418 58.8965 40.3475 59.5319 39.7121C60.1674 39.0766 60.939 38.6908 61.7106 38.6C61.8241 38.5773 61.9149 38.5773 62.0284 38.5773C62.5731 38.5773 63.0496 38.7589 63.3901 39.0993C63.7986 39.5078 63.9801 40.0979 63.8894 40.8014Z" fill="#1A2424"/>
<path d="M60.8482 48.9716C59.6 49.1078 58.3972 49.7206 57.444 50.6965C56.4908 51.6724 55.878 52.8752 55.7418 54.1461C55.583 55.4851 55.9688 56.7106 56.8312 57.5731C57.5574 58.322 58.556 58.7078 59.6681 58.7078C59.8496 58.7078 60.0312 58.7078 60.2355 58.6851C61.4837 58.5489 62.6865 57.9362 63.6397 56.9603C64.5929 55.9844 65.2057 54.7816 65.3418 53.5106C65.5007 52.1716 65.1149 50.9461 64.2525 50.0837C63.3901 49.2213 62.1872 48.8355 60.8482 48.9716ZM63.2539 53.261C63.1631 54.0326 62.7773 54.827 62.1418 55.4624C61.5064 56.0979 60.7348 56.4837 59.9631 56.5745C59.2823 56.6426 58.6922 56.4837 58.2837 56.0752C57.8752 55.6667 57.7163 55.0766 57.7844 54.3731C57.8752 53.6014 58.261 52.8071 58.8965 52.1716C59.5319 51.5362 60.3035 51.1504 61.0752 51.0596C61.1887 51.0369 61.2794 51.0369 61.3929 51.0369C61.9376 51.0369 62.4142 51.2185 62.7546 51.5589C63.1631 51.9901 63.3447 52.5802 63.2539 53.261Z" fill="#1A2424"/>
</g>
<defs>
<filter id="filter0_d_165_0" x="0" y="0" width="100" height="100" filterUnits="userSpaceOnUse" color-interpolation-filters="sRGB">
<feFlood flood-opacity="0" result="BackgroundImageFix"/>
<feColorMatrix in="SourceAlpha" type="matrix" values="0 0 0 0 0 0 0 0 0 0 0 0 0 0 0 0 0 0 127 0" result="hardAlpha"/>
<feOffset dy="5"/>
<feGaussianBlur stdDeviation="10"/>
<feColorMatrix type="matrix" values="0 0 0 0 0 0 0 0 0 0 0 0 0 0 0 0 0 0 0.05 0"/>
<feBlend mode="normal" in2="BackgroundImageFix" result="effect1_dropShadow_165_0"/>
<feBlend mode="normal" in="SourceGraphic" in2="effect1_dropShadow_165_0" result="shape"/>
</filter>
<clipPath id="clip0_165_0">
<rect width="32" height="32" fill="white" transform="translate(34 29)"/>
</clipPath>
</defs>
</svg>
